{
  "project_info": {
    "project_number": "474270621894",
    "firebase_url": "https://smartnavigationapp-8a83c.firebaseio.com",
    "project_id": "smartnavigationapp-8a83c",
    "storage_bucket": "smartnavigationapp-8a83c.appspot.com"
  },
  "client": [
    {
      "client_info": {
        "mobilesdk_app_id": "1:474270621894:android:7d5ea6ea47d7149c2fb7c7",
        "android_client_info": {
          "package_name": "com.example.smartnavigationapp"
        }
      },
      "oauth_client": [
        {
          "client_id": "474270621894-f0orkdokjsh5tfvm57rtkhonra8anr9f.apps.googleusercontent.com",
          "client_type": 1,
          "android_info": {
            "package_name": "com.example.smartnavigationapp",
            "certificate_hash": "1739ecb2127723cd733f34cbd2c8178daa48ff56"
          }
        },
        {
          "client_id": "474270621894-rt6ek4v9u8p0fo4h59sqnnaad25teets.apps.googleusercontent.com",
          "client_type": 3
        }
      ],
      "api_key": [
        {
          "current_key": "AIzaSyC4nfqKAXkIzCk-6A2UrFdUbBLmBbY99lo"
        }
      ],
      "services": {
        "appinvite_service": {
          "other_platform_oauth_client": [
            {
              "client_id": "474270621894-rt6ek4v9u8p0fo4h59sqnnaad25teets.apps.googleusercontent.com",
              "client_type": 3
            }
          ]
        }
      }
    }
  ],
  "configuration_version": "1"
}